…
2. Calculate and report the mean and median total number of steps taken per day


```r
sumbyday
```

```
## # A tibble: 61 x 4
##          date totalsteps meansteps mediansteps
##        <fctr>      <int>     <dbl>       <dbl>
##  1 2012-10-01          0       NaN          NA
##  2 2012-10-02        126   0.43750           0
##  3 2012-10-03      11352  39.41667           0
##  4 2012-10-04      12116  42.06944           0
##  5 2012-10-05      13294  46.15972           0
##  6 2012-10-06      15420  53.54167           0
##  7 2012-10-07      11015  38.24653           0
##  8 2012-10-08          0       NaN          NA
##  9 2012-10-09      12811  44.48264           0
## 10 2012-10-10       9900  34.37500           0
## # ... with 51 more rows
```
…
the values with new dataset are:


```r
sumbydayfilldata
```

```
## # A tibble: 61 x 4
##          date totalsteps meansteps mediansteps
##        <fctr>      <dbl>     <dbl>       <dbl>
##  1 2012-10-01   10766.19  37.38260    34.11321
##  2 2012-10-02     126.00   0.43750     0.00000
##  3 2012-10-03   11352.00  39.41667     0.00000
##  4 2012-10-04   12116.00  42.06944     0.00000
##  5 2012-10-05   13294.00  46.15972     0.00000
##  6 2012-10-06   15420.00  53.54167     0.00000
##  7 2012-10-07   11015.00  38.24653     0.00000
##  8 2012-10-08   10766.19  37.38260    34.11321
##  9 2012-10-09   12811.00  44.48264     0.00000
## 10 2012-10-10    9900.00  34.37500     0.00000
## # ... with 51 more rows
```
…
